{
  "$id": "node",
  "type": "object",
  "properties": {
    "name": {
      "type": "string"
    },
    "propFromDef": {
      "$ref": "#/definitions/withoutIdDef"
    },
    "propFromIdDef": {
      "$ref": "#withIdDef"
    },
    "selfRef": {
      "$ref": "#"
    },
    "leafsAsObject": {
      "type": "object",
      "properties": {
        "create": {
          "$ref": "leaf"
        },
        "read": {
          "$ref": "leaf"
        },
        "update": {
          "$ref": "leaf"
        },
        "delete": {
          "$ref": "leaf"
        }
      }
    },
    "leafsAsArray": {
      "type": "array",
      "items": {
        "$ref": "leaf"
      }
    },
    "leafsAsTuple": {
      "type": "array",
      "items": [
        {
          "$ref": "leaf"
        },
        {
          "type": "integer"
        }
      ]
    }
  },
  "definitions": {
    "withoutIdDef": {
      "type": "string"
    },
    "withIdDef": {
      "$id": "withoutIdDef",
      "type": "number"
    }
  }
}
